LTE Exploration
…
LTE

## # A tibble: 502,246 x 31
##    Date                `Cell Name`  `(HU) Average CQI ~ `(HU) Average UE ~
##    <dttm>              <chr>                      <dbl>              <dbl>
##  1 2018-03-01 00:00:00 L21_L4404_02               11.8                2.46
##  2 2018-03-01 00:00:00 L18_LK2342_~               10.4               10.9 
##  3 2018-03-01 00:00:00 L21_L1875_01               10.6                1.47
##  4 2018-03-01 00:00:00 L21_L6034_04                9.42              31.9 
##  5 2018-03-01 00:00:00 L21_LU4720_~                9.36               1.09
##  6 2018-03-01 00:00:00 L21_L0084_02               11.0               37.0 
##  7 2018-03-01 00:00:00 L21_L2884_01               10.4               21.5 
##  8 2018-03-01 00:00:00 L21_LR2682_~               10.7               20.6 
##  9 2018-03-01 00:00:00 L21_L1824_02               10.6               19.2 
## 10 2018-03-01 00:00:00 L21_L6210_01               10.2               20.0 
## # ... with 502,236 more rows, and 27 more variables: `(HU) Cell DL Average
## #   Throughput (Mbps)` <dbl>, `(HU) DL Traffic Volume (MB)` <dbl>, `(HU)
## #   UL Traffic Volume (MB)` <dbl>, `(HU) User DL Average Throughput
## #   (Mbps)` <dbl>, `(HU) User UL Average Throughput (Mbps)` <dbl>,
## #   `(HU)Avg MCS` <dbl>, `DL RBLER` <dbl>, L.ChMeas.RI.Rank1 <int>,
## #   L.ChMeas.RI.Rank2 <int>, L.ChMeas.RI.Rank3 <int>,
## #   L.ChMeas.RI.Rank4 <int>, `(HU) DL PRB Utilization(%)` <dbl>,
## #   L.RA.TA.UE.Index0 <int>, L.RA.TA.UE.Index1 <int>,
## #   L.RA.TA.UE.Index10 <int>, L.RA.TA.UE.Index11 <int>,
…
Selecting and renamming Variables

#LTE <- LTE %>% select(Date, `Cell Name`,`(HU) Average CQI Per Cell`, `(HU) Average UE Number`, `(HU) User DL Average Throughput (Mbps)`, `(HU) DL Traffic Volume (MB)`, `(HU) UL Traffic Volume (MB)`, `(HU) User UL Average Throughput (Mbps)`, `(HU) DL PRB Utilization(%)`, starts_with('L.RA'))

LTE <- LTE %>% rename(CQI = `(HU) Average CQI Per Cell`,avg_ue = `(HU) Average UE Number`,avg_dl_cell_throughput = `(HU) Cell DL Average Throughput (Mbps)`,avg_dl_user_throughput = `(HU) User DL Average Throughput (Mbps)`,avg_ul_user_throughput = `(HU) User UL Average Throughput (Mbps)`,dl_traffic = `(HU) DL Traffic Volume (MB)`,ul_traffic = `(HU) UL Traffic Volume (MB)`,ul_traffic = `(HU) UL Traffic Volume (MB)`,avg_ul_user_throughput = `(HU) User UL Average Throughput (Mbps)`,prb_utilization = `(HU) DL PRB Utilization(%)`, avg_mcs = `(HU)Avg MCS`)

LTE

## # A tibble: 502,246 x 31
##    Date                `Cell Name`     CQI avg_ue avg_dl_cell_throughput
##    <dttm>              <chr>         <dbl>  <dbl>                  <dbl>
##  1 2018-03-01 00:00:00 L21_L4404_02  11.8    2.46                   8.22
##  2 2018-03-01 00:00:00 L18_LK2342_03 10.4   10.9                    8.86
##  3 2018-03-01 00:00:00 L21_L1875_01  10.6    1.47                  28.9 
##  4 2018-03-01 00:00:00 L21_L6034_04   9.42  31.9                   11.5 
##  5 2018-03-01 00:00:00 L21_LU4720_03  9.36   1.09                   6.54
##  6 2018-03-01 00:00:00 L21_L0084_02  11.0   37.0                   18.8 
##  7 2018-03-01 00:00:00 L21_L2884_01  10.4   21.5                   10.1 
##  8 2018-03-01 00:00:00 L21_LR2682_02 10.7   20.6                   10.7 
##  9 2018-03-01 00:00:00 L21_L1824_02  10.6   19.2                   24.2 
## 10 2018-03-01 00:00:00 L21_L6210_01  10.2   20.0                   15.5 
## # ... with 502,236 more rows, and 26 more variables: dl_traffic <dbl>,
## #   ul_traffic <dbl>, avg_dl_user_throughput <dbl>,
## #   avg_ul_user_throughput <dbl>, avg_mcs <dbl>, `DL RBLER` <dbl>,
## #   L.ChMeas.RI.Rank1 <int>, L.ChMeas.RI.Rank2 <int>,
## #   L.ChMeas.RI.Rank3 <int>, L.ChMeas.RI.Rank4 <int>,
## #   prb_utilization <dbl>, L.RA.TA.UE.Index0 <int>,
## #   L.RA.TA.UE.Index1 <int>, L.RA.TA.UE.Index10 <int>,
## #   L.RA.TA.UE.Index11 <int>, L.RA.TA.UE.Index2 <int>,
## #   L.RA.TA.UE.Index3 <int>, L.RA.TA.UE.Index4 <int>,
…
